UART/UART_tx/UART_TX.vcd
$date
	Fri Nov 14 22:19:44 2025
$end
$version
	QuestaSim Version 2021.1
$end
$timescale
	1ps
$end

$scope module UART_TX_REG_FILE_tb $end
$var parameter 32 ! PERIOD $end
$var parameter 32 " CLKS_PER_BIT $end
$var reg 1 # clk $end
$var reg 1 $ rst $end
$var reg 1 % wr_en_tb $end
$var reg 1 & rd_en_tb $end
$var reg 1 ' wr_addr_tb $end
$var reg 1 ( rd_addr_tb $end
$var reg 8 ) wr_data_tb [7:0] $end
$var wire 1 * tx_out_dut $end
$var wire 1 + rd_data_dut [7] $end
$var wire 1 , rd_data_dut [6] $end
$var wire 1 - rd_data_dut [5] $end
$var wire 1 . rd_data_dut [4] $end
$var wire 1 / rd_data_dut [3] $end
$var wire 1 0 rd_data_dut [2] $end
$var wire 1 1 rd_data_dut [1] $end
$var wire 1 2 rd_data_dut [0] $end
$var reg 1 3 tx_out_expec $end
$var reg 8 4 rd_data_expec [7:0] $end
$var reg 1 5 busy_expec $end
$var reg 1 6 done_expec $end
$var reg 10 7 tx_out_reg [9:0] $end
$var integer 32 8 i $end
$var integer 32 9 j $end

$scope task check_equlaity $end
$var reg 8 : x_dut [7:0] $end
$var reg 8 ; x_expec [7:0] $end
$var reg 4 < error_code [3:0] $end
$upscope $end

$scope task reset_dominance $end
$upscope $end

$scope task check_micro_write $end
$upscope $end

$scope module dut $end
$var parameter 32 = CLKS_PER_BIT $end
$var wire 1 > clk $end
$var wire 1 ? rst $end
$var wire 1 @ wr_en $end
$var wire 1 A rd_en $end
$var wire 1 B wr_addr $end
$var wire 1 C rd_addr $end
$var wire 1 D wr_data [7] $end
$var wire 1 E wr_data [6] $end
$var wire 1 F wr_data [5] $end
$var wire 1 G wr_data [4] $end
$var wire 1 H wr_data [3] $end
$var wire 1 I wr_data [2] $end
$var wire 1 J wr_data [1] $end
$var wire 1 K wr_data [0] $end
$var wire 1 + rd_data [7] $end
$var wire 1 , rd_data [6] $end
$var wire 1 - rd_data [5] $end
$var wire 1 . rd_data [4] $end
$var wire 1 / rd_data [3] $end
$var wire 1 0 rd_data [2] $end
$var wire 1 1 rd_data [1] $end
$var wire 1 2 rd_data [0] $end
$var wire 1 * tx_out $end
$var wire 1 L busy $end
$var wire 1 M uart_tx_done $end
$var wire 1 N data_valid $end
$var wire 1 O tx_p_data [7] $end
$var wire 1 P tx_p_data [6] $end
$var wire 1 Q tx_p_data [5] $end
$var wire 1 R tx_p_data [4] $end
$var wire 1 S tx_p_data [3] $end
$var wire 1 T tx_p_data [2] $end
$var wire 1 U tx_p_data [1] $end
$var wire 1 V tx_p_data [0] $end

$scope module uart_tx $end
$var parameter 32 W CLKS_PER_BIT $end
$var wire 1 O p_data [7] $end
$var wire 1 P p_data [6] $end
$var wire 1 Q p_data [5] $end
$var wire 1 R p_data [4] $end
$var wire 1 S p_data [3] $end
$var wire 1 T p_data [2] $end
$var wire 1 U p_data [1] $end
$var wire 1 V p_data [0] $end
$var wire 1 N data_valid $end
$var wire 1 > clk $end
$var wire 1 ? rst $end
$var wire 1 * tx_out $end
$var wire 1 L busy $end
$var wire 1 M uart_tx_done $end
$var wire 1 X ser_done $end
$var wire 1 Y ser_en $end
$var wire 1 Z ser_data $end
$var wire 1 [ mux_sel [1] $end
$var wire 1 \ mux_sel [0] $end

$scope module FSM $end
$var parameter 32 ] CLKS_PER_BIT $end
$var parameter 32 ^ CLK_COUNTER_WIDTH $end
$var parameter 3 _ IDLE $end
$var parameter 3 ` START $end
$var parameter 3 a DATA $end
$var parameter 3 b STOP $end
$var wire 1 > clk $end
$var wire 1 ? rst $end
$var wire 1 N data_valid $end
$var wire 1 X ser_done $end
$var reg 1 c ser_en $end
$var reg 1 d busy $end
$var reg 1 e uart_tx_done $end
$var reg 2 f mux_sel [1:0] $end
$var reg 2 g clk_counter [1:0] $end
$var reg 3 h cs [2:0] $end
$var reg 3 i ns [2:0] $end
$var reg 1 j clk_counter_done $end
$var reg 1 k last_bit $end
$upscope $end

$scope module mux $end
$var wire 1 [ sel [1] $end
$var wire 1 \ sel [0] $end
$var wire 1 Z s2 $end
$var reg 1 l mux_out $end
$upscope $end

$scope module serializer_unit $end
$var parameter 32 m CLKS_PER_BIT $end
$var parameter 32 n CLK_COUNTER_WIDTH $end
$var wire 1 O p_data [7] $end
$var wire 1 P p_data [6] $end
$var wire 1 Q p_data [5] $end
$var wire 1 R p_data [4] $end
$var wire 1 S p_data [3] $end
$var wire 1 T p_data [2] $end
$var wire 1 U p_data [1] $end
$var wire 1 V p_data [0] $end
$var wire 1 Y ser_en $end
$var wire 1 > clk $end
$var wire 1 ? rst $end
$var reg 1 o out_data $end
$var reg 1 p ser_done $end
$var reg 3 q counter [2:0] $end
$var reg 2 r clk_counter [1:0] $end
$var reg 1 s last_ser_bit $end
$upscope $end
$upscope $end

$scope module reg_file $end
$var parameter 32 t WIDTH $end
$var parameter 32 u DEPTH $end
$var wire 1 > clk $end
$var wire 1 ? rst $end
$var wire 1 @ wr_en $end
$var wire 1 A rd_en $end
$var wire 1 B wr_addr $end
$var wire 1 C rd_addr $end
$var wire 1 D wr_data [7] $end
$var wire 1 E wr_data [6] $end
$var wire 1 F wr_data [5] $end
$var wire 1 G wr_data [4] $end
$var wire 1 H wr_data [3] $end
$var wire 1 I wr_data [2] $end
$var wire 1 J wr_data [1] $end
$var wire 1 K wr_data [0] $end
$var reg 8 v rd_data [7:0] $end
$var wire 1 L busy $end
$var wire 1 M uart_tx_done $end
$var wire 1 O tx_p_data [7] $end
$var wire 1 P tx_p_data [6] $end
$var wire 1 Q tx_p_data [5] $end
$var wire 1 R tx_p_data [4] $end
$var wire 1 S tx_p_data [3] $end
$var wire 1 T tx_p_data [2] $end
$var wire 1 U tx_p_data [1] $end
$var wire 1 V tx_p_data [0] $end
$var wire 1 N uart_tx_data_valid $end
$var reg 8 w reg_control [7:0] $end
$var reg 8 x reg_tx_data [7:0] $end
$var reg 8 y reg_rx_data [7:0] $end
$var reg 8 z reg_status [7:0] $end
$upscope $end
$upscope $end
$upscope $end
$enddefinitions $end
#0
$dumpvars
0#
0$
x%
x&
x'
x(
bx )
13
bx 4
05
06
bx 7
0c
0d
0e
b1 f
b0 g
b0 h
b0 i
0j
0k
1l
1o
0p
b0 q
b0 r
0s
b0 v
b0 w
b0 x
b0 y
b0 z
bx :
bx ;
bx <
b101 !
b11 "
b11 =
b11 W
b11 ]
b10 ^
b0 _
b1 `
b11 a
b110 b
b11 m
b10 n
b1000 t
b100 u
bx 8
bx 9
1*
02
01
00
0/
0.
0-
0,
0+
0L
0M
0N
0V
0U
0T
0S
0R
0Q
0P
0O
0X
0Y
1Z
1\
0[
xK
xJ
xI
xH
xG
xF
xE
xD
xC
xB
xA
x@
0?
0>
$end
#2000
1#
1>
#4000
0#
0>
#6000
1#
1>
#8000
0#
0>
#10000
1#
1>
#12000
0#
0>
#14000
1#
1>
#16000
0#
0>
#18000
1#
1>
#20000
0#
0>
#22000
1#
1>
#24000
0#
0>
#26000
1#
1>
#28000
0#
0>
#30000
1#
1>
#32000
0#
0>
#34000
1#
1>
#36000
0#
0>
#38000
1#
1>
#40000
0#
0>
#42000
1#
1>
#44000
0#
0>
#46000
1#
1>
#48000
0#
0>
#50000
1#
1>
#52000
0#
0>
#54000
1#
1>
#56000
0#
0>
#58000
1#
1>
#60000
0#
0>
#62000
1#
1>
#64000
0#
0>
#66000
1#
1>
#68000
0#
0>
#70000
1#
1>
#72000
0#
0>
#74000
1#
1>
#76000
0#
0>
#78000
1#
1>
#80000
0#
0>
b0 8
0%
1&
1'
1(
b1101 )
b0 9
0@
1A
1B
1C
1K
0J
1I
1H
0G
0F
0E
0D
#82000
1#
1>
#84000
0#
0>
b1 :
b1 ;
b0 <
b0 :
b0 ;
b1 <
b10 <
b1 9
#86000
1#
1>
#88000
0#
0>
b1 :
b1 ;
b0 <
b0 :
b0 ;
b1 <
b10 <
b10 9
#90000
1#
1>
#92000
0#
0>
b1 :
b1 ;
b0 <
b0 :
b0 ;
b1 <
b10 <
b11 9
#94000
1#
1>
#96000
0#
0>
b1 :
b1 ;
b0 <
b0 :
b0 ;
b1 <
b10 <
b100 9
#98000
1#
1>
#100000
0#
0>
b1 :
b1 ;
b0 <
b0 :
b0 ;
b1 <
b10 <
b101 9
#102000
1#
1>
#104000
0#
0>
b1 :
b1 ;
b0 <
b0 :
b0 ;
b1 <
b10 <
b110 9
#106000
1#
1>
#108000
0#
0>
b1 :
b1 ;
b0 <
b0 :
b0 ;
b1 <
b10 <
b111 9
#110000
1#
1>
#112000
0#
0>
b1 :
b1 ;
b0 <
b0 :
b0 ;
b1 <
b10 <
b1000 9
#114000
1#
1>
#116000
0#
0>
b1 :
b1 ;
b0 <
b0 :
b0 ;
b1 <
b10 <
b1001 9
#118000
1#
1>
#120000
0#
0>
b1 :
b1 ;
b0 <
b0 :
b0 ;
b1 <
b10 <
b1010 9
#122000
1#
1>
#124000
0#
0>
b1 :
b1 ;
b0 <
b0 :
b0 ;
b1 <
b10 <
b1011 9
#126000
1#
1>
#128000
0#
0>
b1 :
b1 ;
b0 <
b0 :
b0 ;
b1 <
b10 <
b1100 9
#130000
1#
1>
#132000
0#
0>
b1 :
b1 ;
b0 <
b0 :
b0 ;
b1 <
b10 <
b1101 9
#134000
1#
1>
#136000
0#
0>
b1 :
b1 ;
b0 <
b0 :
b0 ;
b1 <
b10 <
b1110 9
#138000
1#
1>
#140000
0#
0>
b1 :
b1 ;
b0 <
b0 :
b0 ;
b1 <
b10 <
b1111 9
#142000
1#
1>
#144000
0#
0>
b1 :
b1 ;
b0 <
b0 :
b0 ;
b1 <
b10 <
b10000 9
#146000
1#
1>
#148000
0#
0>
b1 :
b1 ;
b0 <
b0 :
b0 ;
b1 <
b10 <
b10001 9
#150000
1#
1>
#152000
0#
0>
b1 :
b1 ;
b0 <
b0 :
b0 ;
b1 <
b10 <
b10010 9
#154000
1#
1>
#156000
0#
0>
b1 :
b1 ;
b0 <
b0 :
b0 ;
b1 <
b10 <
b10011 9
#158000
1#
1>
#160000
0#
0>
b1 :
b1 ;
b0 <
b0 :
b0 ;
b1 <
b10 <
b10100 9
#162000
1#
1>
#164000
0#
0>
b1 :
b1 ;
b0 <
b0 :
b0 ;
b1 <
b10 <
b10101 9
#166000
1#
1>
#168000
0#
0>
b1 :
b1 ;
b0 <
b0 :
b0 ;
b1 <
b10 <
b10110 9
#170000
1#
1>
#172000
0#
0>
b1 :
b1 ;
b0 <
b0 :
b0 ;
b1 <
b10 <
b10111 9
#174000
1#
1>
#176000
0#
0>
b1 :
b1 ;
b0 <
b0 :
b0 ;
b1 <
b10 <
b11000 9
#178000
1#
1>
#180000
0#
0>
b1 :
b1 ;
b0 <
b0 :
b0 ;
b1 <
b10 <
b11001 9
#182000
1#
1>
#184000
0#
0>
b1 :
b1 ;
b0 <
b0 :
b0 ;
b1 <
b10 <
b11010 9
#186000
1#
1>
#188000
0#
0>
b1 :
b1 ;
b0 <
b0 :
b0 ;
b1 <
b10 <
b11011 9
#190000
1#
1>
#192000
0#
0>
b1 :
b1 ;
b0 <
b0 :
b0 ;
b1 <
b10 <
b11100 9
#194000
1#
1>
#196000
0#
0>
b1 :
b1 ;
b0 <
b0 :
b0 ;
b1 <
b10 <
b11101 9
#198000
1#
1>
#200000
0#
0>
b1 :
b1 ;
b0 <
b0 :
b0 ;
b1 <
b10 <
b11110 9
b1 8
1%
0'
b0 9
1@
0B
#202000
1#
1>
#204000
0#
0>
b1 :
b1 ;
b0 <
b0 :
b0 ;
b1 <
b10 <
b1 9
#206000
1#
1>
#208000
0#
0>
b1 :
b1 ;
b0 <
b0 :
b0 ;
b1 <
b10 <
b10 9
#210000
1#
1>
#212000
0#
0>
b1 :
b1 ;
b0 <
b0 :
b0 ;
b1 <
b10 <
b11 9
#214000
1#
1>
#216000
0#
0>
b1 :
b1 ;
b0 <
b0 :
b0 ;
b1 <
b10 <
b100 9
#218000
1#
1>
#220000
0#
0>
b1 :
b1 ;
b0 <
b0 :
b0 ;
b1 <
b10 <
b101 9
#222000
1#
1>
#224000
0#
0>
b1 :
b1 ;
b0 <
b0 :
b0 ;
b1 <
b10 <
b110 9
#226000
1#
1>
#228000
0#
0>
b1 :
b1 ;
b0 <
b0 :
b0 ;
b1 <
b10 <
b111 9
#230000
1#
1>
#232000
0#
0>
b1 :
b1 ;
b0 <
b0 :
b0 ;
b1 <
b10 <
b1000 9
#234000
1#
1>
#236000
0#
0>
b1 :
b1 ;
b0 <
b0 :
b0 ;
b1 <
b10 <
b1001 9
#238000
1#
1>
#240000
0#
0>
b1 :
b1 ;
b0 <
b0 :
b0 ;
b1 <
b10 <
b1010 9
#242000
1#
1>
#244000
0#
0>
b1 :
b1 ;
b0 <
b0 :
b0 ;
b1 <
b10 <
b1011 9
#246000
1#
1>
#248000
0#
0>
b1 :
b1 ;
b0 <
b0 :
b0 ;
b1 <
b10 <
b1100 9
#250000
1#
1>
#252000
0#
0>
b1 :
b1 ;
b0 <
b0 :
b0 ;
b1 <
b10 <
b1101 9
#254000
1#
1>
#256000
0#
0>
b1 :
b1 ;
b0 <
b0 :
b0 ;
b1 <
b10 <
b1110 9
#258000
1#
1>
#260000
0#
0>
b1 :
b1 ;
b0 <
b0 :
b0 ;
b1 <
b10 <
b1111 9
#262000
1#
1>
#264000
0#
0>
b1 :
b1 ;
b0 <
b0 :
b0 ;
b1 <
b10 <
b10000 9
#266000
1#
1>
#268000
0#
0>
b1 :
b1 ;
b0 <
b0 :
b0 ;
b1 <
b10 <
b10001 9
#270000
1#
1>
#272000
0#
0>
b1 :
b1 ;
b0 <
b0 :
b0 ;
b1 <
b10 <
b10010 9
#274000
1#
1>
#276000
0#
0>
b1 :
b1 ;
b0 <
b0 :
b0 ;
b1 <
b10 <
b10011 9
#278000
1#
1>
#280000
0#
0>
b1 :
b1 ;
b0 <
b0 :
b0 ;
b1 <
b10 <
b10100 9
#282000
1#
1>
#284000
0#
0>
b1 :
b1 ;
b0 <
b0 :
b0 ;
b1 <
b10 <
b10101 9
#286000
1#
1>
#288000
0#
0>
b1 :
b1 ;
b0 <
b0 :
b0 ;
b1 <
b10 <
b10110 9
#290000
1#
1>
#292000
0#
0>
b1 :
b1 ;
b0 <
b0 :
b0 ;
b1 <
b10 <
b10111 9
#294000
1#
1>
#296000
0#
0>
b1 :
b1 ;
b0 <
b0 :
b0 ;
b1 <
b10 <
b11000 9
#298000
1#
1>
#300000
0#
0>
b1 :
b1 ;
b0 <
b0 :
b0 ;
b1 <
b10 <
b11001 9
#302000
1#
1>
#304000
0#
0>
b1 :
b1 ;
b0 <
b0 :
b0 ;
b1 <
b10 <
b11010 9
#306000
1#
1>
#308000
0#
0>
b1 :
b1 ;
b0 <
b0 :
b0 ;
b1 <
b10 <
b11011 9
#310000
1#
1>
#312000
0#
0>
b1 :
b1 ;
b0 <
b0 :
b0 ;
b1 <
b10 <
b11100 9
#314000
1#
1>
#316000
0#
0>
b1 :
b1 ;
b0 <
b0 :
b0 ;
b1 <
b10 <
b11101 9
#318000
1#
1>
#320000
0#
0>
b1 :
b1 ;
b0 <
b0 :
b0 ;
b1 <
b10 <
b11110 9
b10 8
0%
1'
0(
b11111001 )
b0 9
0@
1B
0C
0I
1G
1F
1E
1D
#322000
1#
1>
#324000
0#
0>
b1 :
b1 ;
b0 <
b0 :
b0 ;
b1 <
b10 <
b1 9
#326000
1#
1>
#328000
0#
0>
b1 :
b1 ;
b0 <
b0 :
b0 ;
b1 <
b10 <
b10 9
#330000
1#
1>
#332000
0#
0>
b1 :
b1 ;
b0 <
b0 :
b0 ;
b1 <
b10 <
b11 9
#334000
1#
1>
#336000
0#
0>
b1 :
b1 ;
b0 <
b0 :
b0 ;
b1 <
b10 <
b100 9
#338000
1#
1>
#340000
0#
0>
b1 :
b1 ;
b0 <
b0 :
b0 ;
b1 <
b10 <
b101 9
#342000
1#
1>
#344000
0#
0>
b1 :
b1 ;
b0 <
b0 :
b0 ;
b1 <
b10 <
b110 9
#346000
1#
1>
#348000
0#
0>
b1 :
b1 ;
b0 <
b0 :
b0 ;
b1 <
b10 <
b111 9
#350000
1#
1>
#352000
0#
0>
b1 :
b1 ;
b0 <
b0 :
b0 ;
b1 <
b10 <
b1000 9
#354000
1#
1>
#356000
0#
0>
b1 :
b1 ;
b0 <
b0 :
b0 ;
b1 <
b10 <
b1001 9
#358000
1#
1>
#360000
0#
0>
b1 :
b1 ;
b0 <
b0 :
b0 ;
b1 <
b10 <
b1010 9
#362000
1#
1>
#364000
0#
0>
b1 :
b1 ;
b0 <
b0 :
b0 ;
b1 <
b10 <
b1011 9
#366000
1#
1>
#368000
0#
0>
b1 :
b1 ;
b0 <
b0 :
b0 ;
b1 <
b10 <
b1100 9
#370000
1#
1>
#372000
0#
0>
b1 :
b1 ;
b0 <
b0 :
b0 ;
b1 <
b10 <
b1101 9
#374000
1#
1>
#376000
0#
0>
b1 :
b1 ;
b0 <
b0 :
b0 ;
b1 <
b10 <
b1110 9
#378000
1#
1>
#380000
0#
0>
b1 :
b1 ;
b0 <
b0 :
b0 ;
b1 <
b10 <
b1111 9
#382000
1#
1>
#384000
0#
0>
b1 :
b1 ;
b0 <
b0 :
b0 ;
b1 <
b10 <
b10000 9
#386000
1#
1>
#388000
0#
0>
b1 :
b1 ;
b0 <
b0 :
b0 ;
b1 <
b10 <
b10001 9
#390000
1#
1>
#392000
0#
0>
b1 :
b1 ;
b0 <
b0 :
b0 ;
b1 <
b10 <
b10010 9
#394000
1#
1>
#396000
0#
0>
b1 :
b1 ;
b0 <
b0 :
b0 ;
b1 <
b10 <
b10011 9
#398000
1#
1>
#400000
0#
0>
b1 :
b1 ;
b0 <
b0 :
b0 ;
b1 <
b10 <
b10100 9
#402000
1#
1>
#404000
0#
0>
b1 :
b1 ;
b0 <
b0 :
b0 ;
b1 <
b10 <
b10101 9
#406000
1#
1>
#408000
0#
0>
b1 :
b1 ;
b0 <
b0 :
b0 ;
b1 <
b10 <
b10110 9
#410000
1#
1>
#412000
0#
0>
b1 :
b1 ;
b0 <
b0 :
b0 ;
b1 <
b10 <
b10111 9
#414000
1#
1>
#416000
0#
0>
b1 :
b1 ;
b0 <
b0 :
b0 ;
b1 <
b10 <
b11000 9
#418000
1#
1>
#420000
0#
0>
b1 :
b1 ;
b0 <
b0 :
b0 ;
b1 <
b10 <
b11001 9
#422000
1#
1>
#424000
0#
0>
b1 :
b1 ;
b0 <
b0 :
b0 ;
b1 <
b10 <
b11010 9
#426000
1#
1>
#428000
0#
0>
b1 :
b1 ;
b0 <
b0 :
b0 ;
b1 <
b10 <
b11011 9
#430000
1#
1>
#432000
0#
0>
b1 :
b1 ;
b0 <
b0 :
b0 ;
b1 <
b10 <
b11100 9
#434000
1#
1>
#436000
0#
0>
b1 :
b1 ;
b0 <
b0 :
b0 ;
b1 <
b10 <
b11101 9
#438000
1#
1>
#440000
0#
0>
b1 :
b1 ;
b0 <
b0 :
b0 ;
b1 <
b10 <
b11110 9
b11 8
0'
1(
b1110111 )
b0 9
0B
1C
1J
1I
0H
0D
#442000
1#
1>
#444000
0#
0>
b1 :
b1 ;
b0 <
b0 :
b0 ;
b1 <
b10 <
b1 9
#446000
1#
1>
#448000
0#
0>
b1 :
b1 ;
b0 <
b0 :
b0 ;
b1 <
b10 <
b10 9
#450000
1#
1>
#452000
0#
0>
b1 :
b1 ;
b0 <
b0 :
b0 ;
b1 <
b10 <
b11 9
#454000
1#
1>
#456000
0#
0>
b1 :
b1 ;
b0 <
b0 :
b0 ;
b1 <
b10 <
b100 9
#458000
1#
1>
#460000
0#
0>
b1 :
b1 ;
b0 <
b0 :
b0 ;
b1 <
b10 <
b101 9
#462000
1#
1>
#464000
0#
0>
b1 :
b1 ;
b0 <
b0 :
b0 ;
b1 <
b10 <
b110 9
#466000
1#
1>
#468000
0#
0>
b1 :
b1 ;
b0 <
b0 :
b0 ;
b1 <
b10 <
b111 9
#470000
1#
1>
#472000
0#
0>
b1 :
b1 ;
b0 <
b0 :
b0 ;
b1 <
b10 <
b1000 9
#474000
1#
1>
#476000
0#
0>
b1 :
b1 ;
b0 <
b0 :
b0 ;
b1 <
b10 <
b1001 9
#478000
1#
1>
#480000
0#
0>
b1 :
b1 ;
b0 <
b0 :
b0 ;
b1 <
b10 <
b1010 9
#482000
1#
1>
#484000
0#
0>
b1 :
b1 ;
b0 <
b0 :
b0 ;
b1 <
b10 <
b1011 9
#486000
1#
1>
#488000
0#
0>
b1 :
b1 ;
b0 <
b0 :
b0 ;
b1 <
b10 <
b1100 9
#490000
1#
1>
#492000
0#
0>
b1 :
b1 ;
b0 <
b0 :
b0 ;
b1 <
b10 <
b1101 9
#494000
1#
1>
#496000
0#
0>
b1 :
b1 ;
b0 <
b0 :
b0 ;
b1 <
b10 <
b1110 9
#498000
1#
1>
#500000
0#
0>
b1 :
b1 ;
b0 <
b0 :
b0 ;
b1 <
b10 <
b1111 9
#502000
1#
1>
#504000
0#
0>
b1 :
b1 ;
b0 <
b0 :
b0 ;
b1 <
b10 <
b10000 9
#506000
1#
1>
#508000
0#
0>
b1 :
b1 ;
b0 <
b0 :
b0 ;
b1 <
b10 <
b10001 9
#510000
1#
1>
#512000
0#
0>
b1 :
b1 ;
b0 <
b0 :
b0 ;
b1 <
b10 <
b10010 9
#514000
1#
1>
#516000
0#
0>
b1 :
b1 ;
b0 <
b0 :
b0 ;
b1 <
b10 <
b10011 9
#518000
1#
1>
#520000
0#
0>
b1 :
b1 ;
b0 <
b0 :
b0 ;
b1 <
b10 <
b10100 9
#522000
1#
1>
#524000
0#
0>
b1 :
b1 ;
b0 <
b0 :
b0 ;
b1 <
b10 <
b10101 9
#526000
1#
1>
#528000
0#
0>
b1 :
b1 ;
b0 <
b0 :
b0 ;
b1 <
b10 <
b10110 9
#530000
1#
1>
#532000
0#
0>
b1 :
b1 ;
b0 <
b0 :
b0 ;
b1 <
b10 <
b10111 9
#534000
1#
1>
#536000
0#
0>
b1 :
b1 ;
b0 <
b0 :
b0 ;
b1 <
b10 <
b11000 9
#538000
1#
1>
#540000
0#
0>
b1 :
b1 ;
b0 <
b0 :
b0 ;
b1 <
b10 <
b11001 9
#542000
1#
1>
#544000
0#
0>
b1 :
b1 ;
b0 <
b0 :
b0 ;
b1 <
b10 <
b11010 9
#546000
1#
1>
#548000
0#
0>
b1 :
b1 ;
b0 <
b0 :
b0 ;
b1 <
b10 <
b11011 9
#550000
1#
1>
#552000
0#
0>
b1 :
b1 ;
b0 <
b0 :
b0 ;
b1 <
b10 <
b11100 9
#554000
1#
1>
#556000
0#
0>
b1 :
b1 ;
b0 <
b0 :
b0 ;
b1 <
b10 <
b11101 9
#558000
1#
1>
#560000
0#
0>
b1 :
b1 ;
b0 <
b0 :
b0 ;
b1 <
b10 <
b11110 9
b100 8
0(
b11101000 )
b0 9
0C
0K
0J
0I
1H
0G
1D
#562000
1#
1>
#564000
0#
0>
b1 :
b1 ;
b0 <
b0 :
b0 ;
b1 <
b10 <
b1 9
#566000
1#
1>
#568000
0#
0>
b1 :
b1 ;
b0 <
b0 :
b0 ;
b1 <
b10 <
b10 9
#570000
1#
1>
#572000
0#
0>
b1 :
b1 ;
b0 <
b0 :
b0 ;
b1 <
b10 <
b11 9
#574000
1#
1>
#576000
0#
0>
b1 :
b1 ;
b0 <
b0 :
b0 ;
b1 <
b10 <
b100 9
#578000
1#
1>
#580000
0#
0>
b1 :
b1 ;
b0 <
b0 :
b0 ;
b1 <
b10 <
b101 9
#582000
1#
1>
#584000
0#
0>
b1 :
b1 ;
b0 <
b0 :
b0 ;
b1 <
b10 <
b110 9
#586000
1#
1>
#588000
0#
0>
b1 :
b1 ;
b0 <
b0 :
b0 ;
b1 <
b10 <
b111 9
#590000
1#
1>
#592000
0#
0>
b1 :
b1 ;
b0 <
b0 :
b0 ;
b1 <
b10 <
b1000 9
#594000
1#
1>
#596000
0#
0>
b1 :
b1 ;
b0 <
b0 :
b0 ;
b1 <
b10 <
b1001 9
#598000
1#
1>
#600000
0#
0>
b1 :
b1 ;
b0 <
b0 :
b0 ;
b1 <
b10 <
b1010 9
#602000
1#
1>
#604000
0#
0>
b1 :
b1 ;
b0 <
b0 :
b0 ;
b1 <
b10 <
b1011 9
#606000
1#
1>
#608000
0#
0>
b1 :
b1 ;
b0 <
b0 :
b0 ;
b1 <
b10 <
b1100 9
#610000
1#
1>
#612000
0#
0>
b1 :
b1 ;
b0 <
b0 :
b0 ;
b1 <
b10 <
b1101 9
#614000
1#
1>
#616000
0#
0>
b1 :
b1 ;
b0 <
b0 :
b0 ;
b1 <
b10 <
b1110 9
#618000
1#
1>
#620000
0#
0>
b1 :
b1 ;
b0 <
b0 :
b0 ;
b1 <
b10 <
b1111 9
#622000
1#
1>
#624000
0#
0>
b1 :
b1 ;
b0 <
b0 :
b0 ;
b1 <
b10 <
b10000 9
#626000
1#
1>
#628000
0#
0>
b1 :
b1 ;
b0 <
b0 :
b0 ;
b1 <
b10 <
b10001 9
#630000
1#
1>
#632000
0#
0>
b1 :
b1 ;
b0 <
b0 :
b0 ;
b1 <
b10 <
b10010 9
#634000
1#
1>
#636000
0#
0>
b1 :
b1 ;
b0 <
b0 :
b0 ;
b1 <
b10 <
b10011 9
#638000
1#
1>
#640000
0#
0>
b1 :
b1 ;
b0 <
b0 :
b0 ;
b1 <
b10 <
b10100 9
#642000
1#
1>
#644000
0#
0>
b1 :
b1 ;
b0 <
b0 :
b0 ;
b1 <
b10 <
b10101 9
#646000
1#
1>
#648000
0#
0>
b1 :
b1 ;
b0 <
b0 :
b0 ;
b1 <
b10 <
b10110 9
#650000
1#
1>
#652000
0#
0>
b1 :
b1 ;
b0 <
b0 :
b0 ;
b1 <
b10 <
b10111 9
#654000
1#
1>
#656000
0#
0>
b1 :
b1 ;
b0 <
b0 :
b0 ;
b1 <
b10 <
b11000 9
#658000
1#
1>
#660000
0#
0>
b1 :
b1 ;
b0 <
b0 :
b0 ;
b1 <
b10 <
b11001 9
#662000
1#
1>
#664000
0#
0>
b1 :
b1 ;
b0 <
b0 :
b0 ;
b1 <
b10 <
b11010 9
#666000
1#
1>
#668000
0#
0>
b1 :
b1 ;
b0 <
b0 :
b0 ;
b1 <
b10 <
b11011 9
#670000
1#
1>
#672000
0#
0>
b1 :
b1 ;
b0 <
b0 :
b0 ;
b1 <
b10 <
b11100 9
#674000
1#
1>
#676000
0#
0>
b1 :
b1 ;
b0 <
b0 :
b0 ;
b1 <
b10 <
b11101 9
#678000
1#
1>
#680000
0#
0>
b1 :
b1 ;
b0 <
b0 :
b0 ;
b1 <
b10 <
b11110 9
b101 8
1%
0&
1'
1(
b1100101 )
b0 9
1@
0A
1B
1C
1K
1I
0H
0D
#682000
1#
1>
#684000
0#
0>
b1 :
b1 ;
b0 <
b0 :
b0 ;
b1 <
b10 <
b1 9
#686000
1#
1>
#688000
0#
0>
b1 :
b1 ;
b0 <
b0 :
b0 ;
b1 <
b10 <
b10 9
#690000
1#
1>
#692000
0#
0>
b1 :
b1 ;
b0 <
b0 :
b0 ;
b1 <
b10 <
b11 9
#694000
1#
1>
#696000
0#
0>
b1 :
b1 ;
b0 <
b0 :
b0 ;
b1 <
b10 <
b100 9
#698000
1#
1>
#700000
0#
0>
b1 :
b1 ;
b0 <
b0 :
b0 ;
b1 <
b10 <
b101 9
#702000
1#
1>
#704000
0#
0>
b1 :
b1 ;
b0 <
b0 :
b0 ;
b1 <
b10 <
b110 9
#706000
1#
1>
#708000
0#
0>
b1 :
b1 ;
b0 <
b0 :
b0 ;
b1 <
b10 <
b111 9
#710000
1#
1>
#712000
0#
0>
b1 :
b1 ;
b0 <
b0 :
b0 ;
b1 <
b10 <
b1000 9
#714000
1#
1>
#716000
0#
0>
b1 :
b1 ;
b0 <
b0 :
b0 ;
b1 <
b10 <
b1001 9
#718000
1#
1>
#720000
0#
0>
b1 :
b1 ;
b0 <
b0 :
b0 ;
b1 <
b10 <
b1010 9
#722000
1#
1>
#724000
0#
0>
b1 :
b1 ;
b0 <
b0 :
b0 ;
b1 <
b10 <
b1011 9
#726000
1#
1>
#728000
0#
0>
b1 :
b1 ;
b0 <
b0 :
b0 ;
b1 <
b10 <
b1100 9
#730000
1#
1>
#732000
0#
0>
b1 :
b1 ;
b0 <
b0 :
b0 ;
b1 <
b10 <
b1101 9
#734000
1#
1>
#736000
0#
0>
b1 :
b1 ;
b0 <
b0 :
b0 ;
b1 <
b10 <
b1110 9
#738000
1#
1>
#740000
0#
0>
b1 :
b1 ;
b0 <
b0 :
b0 ;
b1 <
b10 <
b1111 9
#742000
1#
1>
#744000
0#
0>
b1 :
b1 ;
b0 <
b0 :
b0 ;
b1 <
b10 <
b10000 9
#746000
1#
1>
#748000
0#
0>
b1 :
b1 ;
b0 <
b0 :
b0 ;
b1 <
b10 <
b10001 9
#750000
1#
1>
#752000
0#
0>
b1 :
b1 ;
b0 <
b0 :
b0 ;
b1 <
b10 <
b10010 9
#754000
1#
1>
#756000
0#
0>
b1 :
b1 ;
b0 <
b0 :
b0 ;
b1 <
b10 <
b10011 9
#758000
1#
1>
#760000
0#
0>
b1 :
b1 ;
b0 <
b0 :
b0 ;
b1 <
b10 <
b10100 9
#762000
1#
1>
#764000
0#
0>
b1 :
b1 ;
b0 <
b0 :
b0 ;
b1 <
b10 <
b10101 9
#766000
1#
1>
#768000
0#
0>
b1 :
b1 ;
b0 <
b0 :
b0 ;
b1 <
b10 <
b10110 9
#770000
1#
1>
#772000
0#
0>
b1 :
b1 ;
b0 <
b0 :
b0 ;
b1 <
b10 <
b10111 9
#774000
1#
1>
